Analítica de los Negocios
…
En 2021, Blizzard Entertainment inició un proyecto de análisis de datos sobre los aumentos salariales de sus empleados. Esto fue en respuesta a las crecientes preocupaciones sobre prácticas de compensación en la industria de videojuegos, desencadenadas por un archivo de Excel anónimo que revelaba salarios internos. El objetivo era identificar posibles disparidades en los ajustes salariales entre diferentes grupos de empleados y niveles de desempeño (Fuente: Blizzard Workers Share Salaries in Revolt Over Pay).

Suponga que usted hace parte de este equipo. El nombre de los datos que usarán para este análisis es blizzard_salary y las variables relevantes son:

incr_porcentual: Aumento dado en julio de 2020, como incremento porcentual con valores entre 1 (aumento del 1%) al 21.5 (incremento del 21.5%)

tipo_contrato: Tipo de contrato, con las categorías Contrato por Hora y Contrato Fijo

salario_anual: Salario anual, en doláres (USD), con valores entre $25,000 y $216,856.

nivel_performance: El nivel de la revisión del desempeño más reciente, con categorías Malo, Normal, Bueno, y Excelente.

Las diez primeras filas de los datos blizzard_salary son las siguientes:

# A tibble: 409 × 4
   incr_porcentual tipo_contrato     salario_anual nivel_performance
             <dbl> <chr>                     <dbl> <fct>            
 1             1   Contrato Fijo            25000  Bueno            
 2             1   Contrato Fijo            25000  Normal           
 3             1   Contrato Fijo            25000  Bueno            
 4             1   Contrato por Hora        33987. Normal           
 5            NA   Contrato por Hora        34798. Bueno            
 6            NA   Contrato por Hora        35360  <NA>             
 7            NA   Contrato por Hora        37440  <NA>             
 8             0   Contrato por Hora        37814. <NA>             
 9             4   Contrato por Hora        41101. Excelente        
10             1.2 Contrato por Hora        42328  <NA>             
# ℹ 399 more rows
…
